{
    "title" : "Quiz 1",
    "questions" : [
        {
            "Text" : "XML Stands for.",
            "Answers": [
                { "Text" : "Hypertext Metadata Listing", "IsCorrect" : false },
                { "Text" : "Extensible Markup Language", "IsCorrect" : true },
                { "Text" : "Extreme Mobile Language", "IsCorrect" : true },
                { "Text" : "External Multiple List", "IsCorrect" : false }
            ]
        },
        {
            "Text" : "DTD stands for.",
            "Answers" : [
                { "Text" : "Data Transform Document", "IsCorrect" : false },
                { "Text" : "Document Topological Data", "IsCorrect" : false },
                { "Text" : "Document To Document", "IsCorrect" : false },
                { "Text" : "Document Type Definition", "IsCorrect" : true }
            ]
        },
        {
            "Text" : "The modern xml document specification is called:",
            "Answers" : [
                { "Text" : "XML Format Standard", "IsCorrect" : false },
                { "Text" : "Document Standard Data", "IsCorrect" : false },
                { "Text" : "XML Schema Documents", "IsCorrect" : true },
                { "Text" : "Schema Data Format Definition Standard", "IsCorrect" : false }
            ]
        },
        {
            "Text" : "Which one of these technologies is NOT used in Extensible Stylesheet Language.",
            "Answers" : [
                { "Text" : "Javascript", "IsCorrect" : true },
                { "Text" : "XSL Formating Objects (XSL-FO)", "IsCorrect" : false },
                { "Text" : "XPath", "IsCorrect" : false },
                { "Text" : "XSL Transformation (XSLT)", "IsCorrect" : false }
            ]
        },
        {
            "Text" : "DTD documents are written in XML:",
            "Answers" : [
                { "Text" : "True", "IsCorrect" : false },
                { "Text" : "False", "IsCorrect" : true }
            ]
        },
        {
            "Text" : "XML Schema Documents are written in XML:",
            "Answers" : [
                { "Text" : "true", "IsCorrect" : true },
                { "Text" : "false", "IsCorrect" : false }
            ]
        },
        {
            "Text" : "What is Extended Backus-Naur From (EBNF)",
            "Answers" : [
                { "Text" : "An technology used in Extensible Stylesheet Language", "IsCorrect" : false },
                { "Text" : "The name of the javascript processing engine", "IsCorrect" : false },
                { "Text" : "The name of new HTML5 Tags", "IsCorrect" : false },
                { "Text" : "The specification used in DTD documents", "IsCorrect" : true }
            ]
        }
    ]
}